proyecto_procesador Nibbler/uP_tb.vcd
$date
	Mon Nov 23 20:27:58 2020
$end
$version
	Icarus Verilog
$end
$timescale
	1s
$end
$scope module testbench $end
$var wire 4 ! data_bus [3:0] $end
$var wire 1 " z_flag $end
$var wire 8 # program_byte [7:0] $end
$var wire 1 $ phase $end
$var wire 4 % oprnd [3:0] $end
$var wire 4 & instr [3:0] $end
$var wire 1 ' c_flag $end
$var wire 12 ( address_RAM [11:0] $end
$var wire 4 ) accu [3:0] $end
$var wire 12 * PC [11:0] $end
$var wire 4 + FF_out [3:0] $end
$var reg 1 , clock $end
$var reg 4 - pushbuttons [3:0] $end
$var reg 1 . reset $end
$var integer 32 / immediateDelay [31:0] $end
$var integer 32 0 jumpDelay [31:0] $end
$var integer 32 1 memoryDelay [31:0] $end
$var integer 32 2 nota [31:0] $end
$scope module uPmodule $end
$var wire 1 , clock $end
$var wire 4 3 data_bus [3:0] $end
$var wire 4 4 pushbuttons [3:0] $end
$var wire 1 . reset $end
$var wire 1 5 zero $end
$var wire 1 " z_flag $end
$var wire 4 6 resulALU [3:0] $end
$var wire 8 7 program_byte [7:0] $end
$var wire 1 $ phase $end
$var wire 4 8 oprnd [3:0] $end
$var wire 4 9 instr [3:0] $end
$var wire 13 : control [12:0] $end
$var wire 1 ; carry $end
$var wire 1 ' c_flag $end
$var wire 12 < address_RAM [11:0] $end
$var wire 4 = accu [3:0] $end
$var wire 12 > PC [11:0] $end
$var wire 1 ? NOTphase $end
$var wire 4 @ FF_out [3:0] $end
$scope module M1 $end
$var wire 12 A direccionRAM [11:0] $end
$var wire 8 B datoROM [7:0] $end
$var wire 4 C datoOPERAND [3:0] $end
$var reg 12 D direcRAM [11:0] $end
$upscope $end
$scope module M10 $end
$var wire 4 E B [3:0] $end
$var wire 3 F operacion [2:0] $end
$var wire 1 5 zero $end
$var wire 4 G resultado [3:0] $end
$var wire 1 ; carry $end
$var wire 4 H A [3:0] $end
$var reg 5 I proceso [4:0] $end
$upscope $end
$scope module M11 $end
$var wire 1 , CLK $end
$var wire 4 J D [3:0] $end
$var wire 1 K ENABLED $end
$var wire 1 . RESET $end
$var reg 4 L Q [3:0] $end
$upscope $end
$scope module M12_alu $end
$var wire 4 M A [3:0] $end
$var wire 1 N ENABLED $end
$var wire 4 O Y [3:0] $end
$upscope $end
$scope module M13 $end
$var wire 1 P csRAM $end
$var wire 4 Q datos [3:0] $end
$var wire 12 R direccion [11:0] $end
$var wire 1 S weRAM $end
$var reg 4 T salida [3:0] $end
$upscope $end
$scope module M14_salida $end
$var wire 4 U A [3:0] $end
$var wire 1 V ENABLED $end
$var wire 4 W Y [3:0] $end
$upscope $end
$scope module M2 $end
$var wire 1 X A $end
$var wire 1 , CLK $end
$var wire 12 Y LOAD [11:0] $end
$var wire 1 . RESET $end
$var wire 1 Z enabled $end
$var reg 12 [ Y_pc [11:0] $end
$upscope $end
$scope module M3 $end
$var wire 12 \ Localidad [11:0] $end
$var wire 8 ] dato [7:0] $end
$upscope $end
$scope module M4 $end
$var wire 1 , CLK $end
$var wire 8 ^ D [7:0] $end
$var wire 1 . RESET $end
$var wire 1 ? ENABLED $end
$var reg 4 _ Q_instrc [3:0] $end
$var reg 4 ` Q_operand [3:0] $end
$upscope $end
$scope module M5 $end
$var wire 1 , CLK $end
$var wire 1 ? N_phase $end
$var wire 1 . RESET $end
$var reg 1 $ Q_phase $end
$upscope $end
$scope module M6 $end
$var wire 1 , CLK $end
$var wire 1 a ENABLED $end
$var wire 1 . RESET $end
$var wire 1 ; carry $end
$var wire 1 5 zero $end
$var reg 1 ' c_flag $end
$var reg 1 " z_flag $end
$upscope $end
$scope module M7 $end
$var wire 1 $ Q_phase $end
$var wire 1 ' c_flag $end
$var wire 4 b instruccion [3:0] $end
$var wire 13 c signal_control [12:0] $end
$var wire 1 " z_flag $end
$var reg 13 d cable [12:0] $end
$var reg 7 e localidad [6:0] $end
$upscope $end
$scope module M8_oprnd $end
$var wire 4 f A [3:0] $end
$var wire 1 g ENABLED $end
$var wire 4 h Y [3:0] $end
$upscope $end
$scope module M9_pushbottons $end
$var wire 4 i A [3:0] $end
$var wire 1 j ENABLED $end
$var wire 4 k Y [3:0] $end
$upscope $end
$upscope $end
$upscope $end
$enddefinitions $end
#0
$dumpvars
bx k
xj
b110 i
bx h
xg
bx f
bx e
bx d
bx c
bx b
xa
bx `
bx _
bx ^
bx ]
bx \
bx [
xZ
bx Y
xX
bx W
xV
bx U
bx T
xS
bx R
bx Q
xP
bx O
xN
bx M
bx L
xK
bx J
bx I
bx H
bx G
bx F
bx E
bx D
bx C
bx B
bx A
bx @
x?
bx >
bx =
bx <
x;
bx :
bx 9
bx 8
bx 7
bx 6
x5
b110 4
bx 3
b0 2
b100010100 1
b1010010000 0
b10000 /
0.
b110 -
0,
bx +
bx *
bx )
bx (
x'
bx &
bx %
x$
bx #
x"
bx !
$end
#2
b0 +
b0 @
b0 W
b0 !
b0 3
b0 E
b0 O
b0 Q
b0 U
b0 h
b0 k
1V
0S
0P
1N
0K
b0 F
0j
0g
0a
1Z
0X
b1000000001000 :
b1000000001000 c
b1000000001000 d
b0 e
b1001111 (
b1001111 <
b1001111 A
b1001111 R
b1001111 Y
b1001111 D
15
b0 6
b0 G
b0 J
b0 M
0;
1?
b0 I
b0 %
b0 8
b0 C
b0 `
b0 f
b0 &
b0 9
b0 _
b0 b
0$
0"
0'
b0 )
b0 =
b0 H
b0 L
b1001111 #
b1001111 7
b1001111 B
b1001111 ]
b1001111 ^
b0 *
b0 >
b0 [
b0 \
1.
#3
0.
#5
05
b1111 6
b1111 G
b1111 J
b1111 M
bz +
bz @
bz W
b1111 I
b1111 !
b1111 3
b1111 E
b1111 O
b1111 Q
b1111 U
b1111 h
b1111 k
0V
0N
1K
b10 F
1g
1a
0Z
b11010000010 :
b11010000010 c
b11010000010 d
b100001 e
b111111011111 (
b111111011111 <
b111111011111 A
b111111011111 R
b111111011111 Y
b111111011111 D
0?
1$
b1111 %
b1111 8
b1111 C
b1111 `
b1111 f
b100 &
b100 9
b100 _
b100 b
b11011111 #
b11011111 7
b11011111 B
b11011111 ]
b11011111 ^
b1 *
b1 >
b1 [
b1 \
1,
#10
0,
#15
b1111 +
b1111 @
b1111 W
b1111 !
b1111 3
b1111 E
b1111 O
b1111 Q
b1111 U
b1111 h
b1111 k
1V
1N
0K
b0 F
0g
0a
1Z
b1000000001000 :
b1000000001000 c
b1000000001000 d
b100000 e
1?
0$
b1111 )
b1111 =
b1111 H
b1111 L
1,
#16
b1000110 2
#20
0,
#25
0Z
b1001 :
b1001 c
b1001 d
b1101001 e
b111101010001 (
b111101010001 <
b111101010001 A
b111101010001 R
b111101010001 Y
b111101010001 D
0?
1$
b1101 &
b1101 9
b1101 _
b1101 b
b1010001 #
b1010001 7
b1010001 B
b1010001 ]
b1010001 ^
b10 *
b10 >
b10 [
b10 \
1,
#30
0,
#35
1Z
b1000000001000 :
b1000000001000 c
b1000000001000 d
b1101000 e
1?
0$
1,
#36
b1100111 2
#40
0,
#45
b110 6
b110 G
b110 J
b110 M
bz +
bz @
bz W
b110 I
b110 !
b110 3
b110 E
b110 O
b110 Q
b110 U
b110 h
b110 k
0V
0N
1K
b10 F
1j
1a
0Z
b11010000100 :
b11010000100 c
b11010000100 d
b101001 e
b101000000 (
b101000000 <
b101000000 A
b101000000 R
b101000000 Y
b101000000 D
0?
1$
b1 %
b1 8
b1 C
b1 `
b1 f
b101 &
b101 9
b101 _
b101 b
b1000000 #
b1000000 7
b1000000 B
b1000000 ]
b1000000 ^
b11 *
b11 >
b11 [
b11 \
1,
#50
0,
#55
b110 +
b110 @
b110 W
b110 !
b110 3
b110 E
b110 O
b110 Q
b110 U
b110 h
b110 k
1V
1N
0K
b0 F
0j
0a
1Z
b1000000001000 :
b1000000001000 c
b1000000001000 d
b101000 e
1?
0$
b110 )
b110 =
b110 H
b110 L
1,
#56
b10001000 2
#60
0,
#65
15
b0 6
b0 G
b0 J
b0 M
bz +
bz @
bz W
b0 I
b0 !
b0 3
b0 E
b0 O
b0 Q
b0 U
b0 h
b0 k
0V
0N
1K
b10 F
1g
1a
0Z
b11010000010 :
b11010000010 c
b11010000010 d
b100001 e
b1001111 (
b1001111 <
b1001111 A
b1001111 R
b1001111 Y
b1001111 D
0?
1$
b0 %
b0 8
b0 C
b0 `
b0 f
b100 &
b100 9
b100 _
b100 b
b1001111 #
b1001111 7
b1001111 B
b1001111 ]
b1001111 ^
b100 *
b100 >
b100 [
b100 \
1,
#70
0,
#75
b0 +
b0 @
b0 W
b0 !
b0 3
b0 E
b0 O
b0 Q
b0 U
b0 h
b0 k
1V
1N
0K
b0 F
0g
0a
1Z
b1000000001000 :
b1000000001000 c
b1000000001000 d
b100010 e
1?
0$
1"
b0 )
b0 =
b0 H
b0 L
1,
#80
0,
#85
05
b1111 6
b1111 G
b1111 J
b1111 M
bz +
bz @
bz W
b1111 I
b1111 !
b1111 3
b1111 E
b1111 O
b1111 Q
b1111 U
b1111 h
b1111 k
0V
0N
1K
b10 F
1g
1a
0Z
b11010000010 :
b11010000010 c
b11010000010 d
b100011 e
b111110101010 (
b111110101010 <
b111110101010 A
b111110101010 R
b111110101010 Y
b111110101010 D
0?
1$
b1111 %
b1111 8
b1111 C
b1111 `
b1111 f
b10101010 #
b10101010 7
b10101010 B
b10101010 ]
b10101010 ^
b101 *
b101 >
b101 [
b101 \
1,
#90
0,
#95
b1111 +
b1111 @
b1111 W
b1111 !
b1111 3
b1111 E
b1111 O
b1111 Q
b1111 U
b1111 h
b1111 k
1V
1N
0K
b0 F
0g
0a
1Z
b1000000001000 :
b1000000001000 c
b1000000001000 d
b100000 e
1?
0$
0"
b1111 )
b1111 =
b1111 H
b1111 L
1,
#100
0,
#105
b1001 6
b1001 G
b1001 J
b1001 M
1;
bz +
bz @
bz W
b11001 I
b1010 !
b1010 3
b1010 E
b1010 O
b1010 Q
b1010 U
b1010 h
b1010 k
0V
0N
1K
b11 F
1g
1a
0Z
b11011000010 :
b11011000010 c
b11011000010 d
b1010001 e
b101000101000 (
b101000101000 <
b101000101000 A
b101000101000 R
b101000101000 Y
b101000101000 D
0?
1$
b1010 %
b1010 8
b1010 C
b1010 `
b1010 f
b1010 &
b1010 9
b1010 _
b1010 b
b101000 #
b101000 7
b101000 B
b101000 ]
b101000 ^
b110 *
b110 >
b110 [
b110 \
1,
#110
0,
#115
0;
b1001 +
b1001 @
b1001 W
b1001 !
b1001 3
b1001 E
b1001 O
b1001 Q
b1001 U
b1001 h
b1001 k
1V
1N
0K
b0 F
0g
0a
1Z
b1000000001000 :
b1000000001000 c
b1000000001000 d
b1010100 e
b1001 6
b1001 G
b1001 J
b1001 M
1?
b1001 I
0$
1'
b1001 )
b1001 =
b1001 H
b1001 L
1,
#116
b10101001 2
#120
0,
#125
b1 6
b1 G
b1 J
b1 M
0;
bz +
bz @
bz W
b1 I
b1000 !
b1000 3
b1000 E
b1000 O
b1000 Q
b1000 U
b1000 h
b1000 k
0V
0N
b1 F
1g
1a
0Z
b1001000010 :
b1001000010 c
b1001000010 d
b10101 e
b100001001010 (
b100001001010 <
b100001001010 A
b100001001010 R
b100001001010 Y
b100001001010 D
0?
1$
b1000 %
b1000 8
b1000 C
b1000 `
b1000 f
b10 &
b10 9
b10 _
b10 b
b1001010 #
b1001010 7
b1001010 B
b1001010 ]
b1001010 ^
b111 *
b111 >
b111 [
b111 \
1,
#130
0,
#135
b1001 6
b1001 G
b1001 J
b1001 M
b1001 +
b1001 @
b1001 W
b1001 I
b1001 !
b1001 3
b1001 E
b1001 O
b1001 Q
b1001 U
b1001 h
b1001 k
1V
1N
b0 F
0g
0a
1Z
b1000000001000 :
b1000000001000 c
b1000000001000 d
b10000 e
1?
0$
0'
1,
#136
b11001010 2
#140
0,
#145
b1010 6
b1010 G
b1010 J
b1010 M
bz +
bz @
bz W
b1010 I
b1010 !
b1010 3
b1010 E
b1010 O
b1010 Q
b1010 U
b1010 h
b1010 k
0V
0N
1K
b10 F
1g
1a
0Z
b11010000010 :
b11010000010 c
b11010000010 d
b100001 e
b101000101100 (
b101000101100 <
b101000101100 A
b101000101100 R
b101000101100 Y
b101000101100 D
0?
1$
b1010 %
b1010 8
b1010 C
b1010 `
b1010 f
b100 &
b100 9
b100 _
b100 b
b101100 #
b101100 7
b101100 B
b101100 ]
b101100 ^
b1000 *
b1000 >
b1000 [
b1000 \
1,
#150
0,
#155
b1010 +
b1010 @
b1010 W
b1010 !
b1010 3
b1010 E
b1010 O
b1010 Q
b1010 U
b1010 h
b1010 k
1V
1N
0K
b0 F
0g
0a
1Z
b1000000001000 :
b1000000001000 c
b1000000001000 d
b100000 e
1?
0$
b1010 )
b1010 =
b1010 H
b1010 L
1,
#160
0,
#165
b1110 6
b1110 G
b1110 J
b1110 M
1;
bz +
bz @
bz W
b11110 I
b1100 !
b1100 3
b1100 E
b1100 O
b1100 Q
b1100 U
b1100 h
b1100 k
0V
0N
b1 F
1g
1a
0Z
b1001000010 :
b1001000010 c
b1001000010 d
b10001 e
b110010100001 (
b110010100001 <
b110010100001 A
b110010100001 R
b110010100001 Y
b110010100001 D
0?
1$
b1100 %
b1100 8
b1100 C
b1100 `
b1100 f
b10 &
b10 9
b10 _
b10 b
b10100001 #
b10100001 7
b10100001 B
b10100001 ]
b10100001 ^
b1001 *
b1001 >
b1001 [
b1001 \
1,
#170
0,
#175
b1010 6
b1010 G
b1010 J
b1010 M
0;
b1010 +
b1010 @
b1010 W
b1010 I
b1010 !
b1010 3
b1010 E
b1010 O
b1010 Q
b1010 U
b1010 h
b1010 k
1V
1N
b0 F
0g
0a
1Z
b1000000001000 :
b1000000001000 c
b1000000001000 d
b10100 e
1?
0$
1'
1,
#176
b11101011 2
#180
0,
#185
b1011 6
b1011 G
b1011 J
b1011 M
0;
bz +
bz @
bz W
b1011 I
b1 !
b1 3
b1 E
b1 O
b1 Q
b1 U
b1 h
b1 k
0V
0N
1K
b11 F
1g
1a
0Z
b11011000010 :
b11011000010 c
b11011000010 d
b1010101 e
b111101011 (
b111101011 <
b111101011 A
b111101011 R
b111101011 Y
b111101011 D
0?
1$
b1 %
b1 8
b1 C
b1 `
b1 f
b1010 &
b1010 9
b1010 _
b1010 b
b11101011 #
b11101011 7
b11101011 B
b11101011 ]
b11101011 ^
b1010 *
b1010 >
b1010 [
b1010 \
1,
#190
0,
#195
b1011 +
b1011 @
b1011 W
b1011 !
b1011 3
b1011 E
b1011 O
b1011 Q
b1011 U
b1011 h
b1011 k
1V
1N
0K
b0 F
0g
0a
1Z
b1000000001000 :
b1000000001000 c
b1000000001000 d
b1010000 e
b1011 6
b1011 G
b1011 J
b1011 M
1?
b1011 I
0$
0'
b1011 )
b1011 =
b1011 H
b1011 L
1,
#196
b100001100 2
#200
0,
#205
b100 6
b100 G
b100 J
b100 M
bz +
bz @
bz W
b100 I
0V
0N
1K
b100 F
1g
1a
0Z
b11100000010 :
b11100000010 c
b11100000010 d
b1110001 e
b101111010000 (
b101111010000 <
b101111010000 A
b101111010000 R
b101111010000 Y
b101111010000 D
0?
1$
b1011 %
b1011 8
b1011 C
b1011 `
b1011 f
b1110 &
b1110 9
b1110 _
b1110 b
b11010000 #
b11010000 7
b11010000 B
b11010000 ]
b11010000 ^
b1011 *
b1011 >
b1011 [
b1011 \
1,
#210
0,
#215
b100 +
b100 @
b100 W
b100 !
b100 3
b100 E
b100 O
b100 Q
b100 U
b100 h
b100 k
1V
1N
0K
b0 F
0g
0a
1Z
b1000000001000 :
b1000000001000 c
b1000000001000 d
b1110000 e
b100 6
b100 G
b100 J
b100 M
1?
b100 I
0$
b100 )
b100 =
b100 H
b100 L
1,
#216
b101001110 2
#220
0,
#225
0Z
b1001 :
b1001 c
b1001 d
b1101001 e
b1010000 (
b1010000 <
b1010000 A
b1010000 R
b1010000 Y
b1010000 D
0?
1$
b0 %
b0 8
b0 C
b0 `
b0 f
b1101 &
b1101 9
b1101 _
b1101 b
b1010000 #
b1010000 7
b1010000 B
b1010000 ]
b1010000 ^
b1100 *
b1100 >
b1100 [
b1100 \
1,
#230
0,
#235
1Z
b1000000001000 :
b1000000001000 c
b1000000001000 d
b1101000 e
1?
0$
1,
#236
b1110 -
b1110 4
b1110 i
b101101111 2
#240
0,
#245
b1110 6
b1110 G
b1110 J
b1110 M
bz +
bz @
bz W
b1110 I
b1110 !
b1110 3
b1110 E
b1110 O
b1110 Q
b1110 U
b1110 h
b1110 k
0V
0N
1K
b10 F
1j
1a
0Z
b11010000100 :
b11010000100 c
b11010000100 d
b101001 e
b1110000 (
b1110000 <
b1110000 A
b1110000 R
b1110000 Y
b1110000 D
0?
1$
b101 &
b101 9
b101 _
b101 b
b1110000 #
b1110000 7
b1110000 B
b1110000 ]
b1110000 ^
b1101 *
b1101 >
b1101 [
b1101 \
1,
#250
0,
#255
b1110 +
b1110 @
b1110 W
b1110 !
b1110 3
b1110 E
b1110 O
b1110 Q
b1110 U
b1110 h
b1110 k
1V
1N
0K
b0 F
0j
0a
1Z
b1000000001000 :
b1000000001000 c
b1000000001000 d
b101000 e
1?
0$
b1110 )
b1110 =
b1110 H
b1110 L
1,
#260
0,
#265
1S
1P
b1000000111000 :
b1000000111000 c
b1000000111000 d
b111001 e
b0 (
b0 <
b0 A
b0 R
b0 Y
b0 D
0?
1$
b111 &
b111 9
b111 _
b111 b
b0 #
b0 7
b0 B
b0 ]
b0 ^
b1110 *
b1110 >
b1110 [
b1110 \
1,
#270
0,
#275
0S
0P
b1000000001000 :
b1000000001000 c
b1000000001000 d
b111000 e
b1001111 (
b1001111 <
b1001111 A
b1001111 R
b1001111 Y
b1001111 D
1?
0$
b1001111 #
b1001111 7
b1001111 B
b1001111 ]
b1001111 ^
b1111 *
b1111 >
b1111 [
b1111 \
1,
#280
0,
#285
b1111 6
b1111 G
b1111 J
b1111 M
bz +
bz @
bz W
b1111 I
b1111 !
b1111 3
b1111 E
b1111 O
b1111 Q
b1111 U
b1111 h
b1111 k
0V
0N
1K
b10 F
1g
1a
0Z
b11010000010 :
b11010000010 c
b11010000010 d
b100001 e
b111101110001 (
b111101110001 <
b111101110001 A
b111101110001 R
b111101110001 Y
b111101110001 D
0?
1$
b1111 %
b1111 8
b1111 C
b1111 `
b1111 f
b100 &
b100 9
b100 _
b100 b
b1110001 #
b1110001 7
b1110001 B
b1110001 ]
b1110001 ^
b10000 *
b10000 >
b10000 [
b10000 \
1,
#290
0,
#295
b1111 +
b1111 @
b1111 W
b1111 !
b1111 3
b1111 E
b1111 O
b1111 Q
b1111 U
b1111 h
b1111 k
1V
1N
0K
b0 F
0g
0a
1Z
b1000000001000 :
b1000000001000 c
b1000000001000 d
b100000 e
1?
0$
b1111 )
b1111 =
b1111 H
b1111 L
1,
#300
0,
#305
1S
1P
b1000000111000 :
b1000000111000 c
b1000000111000 d
b111001 e
b100010001 (
b100010001 <
b100010001 A
b100010001 R
b100010001 Y
b100010001 D
0?
1$
b1 %
b1 8
b1 C
b1 `
b1 f
b111 &
b111 9
b111 _
b111 b
b10001 #
b10001 7
b10001 B
b10001 ]
b10001 ^
b10001 *
b10001 >
b10001 [
b10001 \
1,
#310
0,
#315
0S
0P
b1000000001000 :
b1000000001000 c
b1000000001000 d
b111000 e
b101001010 (
b101001010 <
b101001010 A
b101001010 R
b101001010 Y
b101001010 D
1?
0$
b1001010 #
b1001010 7
b1001010 B
b1001010 ]
b1001010 ^
b10010 *
b10010 >
b10010 [
b10010 \
1,
#320
0,
#325
b1010 6
b1010 G
b1010 J
b1010 M
bz +
bz @
bz W
b1010 I
b1010 !
b1010 3
b1010 E
b1010 O
b1010 Q
b1010 U
b1010 h
b1010 k
0V
0N
1K
b10 F
1g
1a
0Z
b11010000010 :
b11010000010 c
b11010000010 d
b100001 e
b101001110010 (
b101001110010 <
b101001110010 A
b101001110010 R
b101001110010 Y
b101001110010 D
0?
1$
b1010 %
b1010 8
b1010 C
b1010 `
b1010 f
b100 &
b100 9
b100 _
b100 b
b1110010 #
b1110010 7
b1110010 B
b1110010 ]
b1110010 ^
b10011 *
b10011 >
b10011 [
b10011 \
1,
#330
0,
#335
b1010 +
b1010 @
b1010 W
b1010 !
b1010 3
b1010 E
b1010 O
b1010 Q
b1010 U
b1010 h
b1010 k
1V
1N
0K
b0 F
0g
0a
1Z
b1000000001000 :
b1000000001000 c
b1000000001000 d
b100000 e
1?
0$
b1010 )
b1010 =
b1010 H
b1010 L
1,
#340
0,
#345
1S
1P
b1000000111000 :
b1000000111000 c
b1000000111000 d
b111001 e
b1000100010 (
b1000100010 <
b1000100010 A
b1000100010 R
b1000100010 Y
b1000100010 D
0?
1$
b10 %
b10 8
b10 C
b10 `
b10 f
b111 &
b111 9
b111 _
b111 b
b100010 #
b100010 7
b100010 B
b100010 ]
b100010 ^
b10100 *
b10100 >
b10100 [
b10100 \
1,
#350
0,
#355
0S
0P
b1000000001000 :
b1000000001000 c
b1000000001000 d
b111000 e
b1001000001 (
b1001000001 <
b1001000001 A
b1001000001 R
b1001000001 Y
b1001000001 D
1?
0$
b1000001 #
b1000001 7
b1000001 B
b1000001 ]
b1000001 ^
b10101 *
b10101 >
b10101 [
b10101 \
1,
#360
0,
#365
b1 6
b1 G
b1 J
b1 M
bz +
bz @
bz W
b1 I
b1 !
b1 3
b1 E
b1 O
b1 Q
b1 U
b1 h
b1 k
0V
0N
1K
b10 F
1g
1a
0Z
b11010000010 :
b11010000010 c
b11010000010 d
b100001 e
b101110011 (
b101110011 <
b101110011 A
b101110011 R
b101110011 Y
b101110011 D
0?
1$
b1 %
b1 8
b1 C
b1 `
b1 f
b100 &
b100 9
b100 _
b100 b
b1110011 #
b1110011 7
b1110011 B
b1110011 ]
b1110011 ^
b10110 *
b10110 >
b10110 [
b10110 \
1,
#370
0,
#375
b1 +
b1 @
b1 W
b1 !
b1 3
b1 E
b1 O
b1 Q
b1 U
b1 h
b1 k
1V
1N
0K
b0 F
0g
0a
1Z
b1000000001000 :
b1000000001000 c
b1000000001000 d
b100000 e
1?
0$
b1 )
b1 =
b1 H
b1 L
1,
#380
0,
#385
1S
1P
b1000000111000 :
b1000000111000 c
b1000000111000 d
b111001 e
b1100110011 (
b1100110011 <
b1100110011 A
b1100110011 R
b1100110011 Y
b1100110011 D
0?
1$
b11 %
b11 8
b11 C
b11 `
b11 f
b111 &
b111 9
b111 _
b111 b
b110011 #
b110011 7
b110011 B
b110011 ]
b110011 ^
b10111 *
b10111 >
b10111 [
b10111 \
1,
#390
0,
#395
0S
0P
b1000000001000 :
b1000000001000 c
b1000000001000 d
b111000 e
b1101100000 (
b1101100000 <
b1101100000 A
b1101100000 R
b1101100000 Y
b1101100000 D
1?
0$
b1100000 #
b1100000 7
b1100000 B
b1100000 ]
b1100000 ^
b11000 *
b11000 >
b11000 [
b11000 \
1,
#400
0,
#405
b1110 T
05
b1110 6
b1110 G
b1110 J
b1110 M
b1110 I
bz +
bz @
bz W
b1110 !
b1110 3
b1110 E
b1110 O
b1110 Q
b1110 U
b1110 h
b1110 k
0V
1P
0N
1K
b10 F
1a
b1011010100000 :
b1011010100000 c
b1011010100000 d
b110001 e
b0 (
b0 <
b0 A
b0 R
b0 Y
b0 D
0?
1$
b0 %
b0 8
b0 C
b0 `
b0 f
b110 &
b110 9
b110 _
b110 b
b0 #
b0 7
b0 B
b0 ]
b0 ^
b11001 *
b11001 >
b11001 [
b11001 \
1,
#410
0,
#415
b1110 +
b1110 @
b1110 W
1V
0P
1N
0K
b0 F
0a
b1110 !
b1110 3
b1110 E
b1110 O
b1110 Q
b1110 U
b1110 h
b1110 k
b1000000001000 :
b1000000001000 c
b1000000001000 d
bx T
b110000 e
b1100001 (
b1100001 <
b1100001 A
b1100001 R
b1100001 Y
b1100001 D
1?
0$
b1110 )
b1110 =
b1110 H
b1110 L
b1100001 #
b1100001 7
b1100001 B
b1100001 ]
b1100001 ^
b11010 *
b11010 >
b11010 [
b11010 \
1,
#420
0,
#425
b1111 T
05
b1111 6
b1111 G
b1111 J
b1111 M
b1111 I
bz +
bz @
bz W
b1111 !
b1111 3
b1111 E
b1111 O
b1111 Q
b1111 U
b1111 h
b1111 k
0V
1P
0N
1K
b10 F
1a
b1011010100000 :
b1011010100000 c
b1011010100000 d
b110001 e
b100010001 (
b100010001 <
b100010001 A
b100010001 R
b100010001 Y
b100010001 D
0?
1$
b1 %
b1 8
b1 C
b1 `
b1 f
b10001 #
b10001 7
b10001 B
b10001 ]
b10001 ^
b11011 *
b11011 >
b11011 [
b11011 \
1,
#430
0,
#435
b1111 +
b1111 @
b1111 W
1V
0P
1N
0K
b0 F
0a
b1111 !
b1111 3
b1111 E
b1111 O
b1111 Q
b1111 U
b1111 h
b1111 k
b1000000001000 :
b1000000001000 c
b1000000001000 d
bx T
b110000 e
b101100010 (
b101100010 <
b101100010 A
b101100010 R
b101100010 Y
b101100010 D
1?
0$
b1111 )
b1111 =
b1111 H
b1111 L
b1100010 #
b1100010 7
b1100010 B
b1100010 ]
b1100010 ^
b11100 *
b11100 >
b11100 [
b11100 \
1,
#440
0,
#445
b1010 T
05
b1010 6
b1010 G
b1010 J
b1010 M
b1010 I
bz +
bz @
bz W
b1010 !
b1010 3
b1010 E
b1010 O
b1010 Q
b1010 U
b1010 h
b1010 k
0V
1P
0N
1K
b10 F
1a
b1011010100000 :
b1011010100000 c
b1011010100000 d
b110001 e
b1000100010 (
b1000100010 <
b1000100010 A
b1000100010 R
b1000100010 Y
b1000100010 D
0?
1$
b10 %
b10 8
b10 C
b10 `
b10 f
b100010 #
b100010 7
b100010 B
b100010 ]
b100010 ^
b11101 *
b11101 >
b11101 [
b11101 \
1,
#450
0,
#455
b1010 +
b1010 @
b1010 W
1V
0P
1N
0K
b0 F
0a
b1010 !
b1010 3
b1010 E
b1010 O
b1010 Q
b1010 U
b1010 h
b1010 k
b1000000001000 :
b1000000001000 c
b1000000001000 d
bx T
b110000 e
b1001100011 (
b1001100011 <
b1001100011 A
b1001100011 R
b1001100011 Y
b1001100011 D
1?
0$
b1010 )
b1010 =
b1010 H
b1010 L
b1100011 #
b1100011 7
b1100011 B
b1100011 ]
b1100011 ^
b11110 *
b11110 >
b11110 [
b11110 \
1,
#460
0,
#465
b1 T
05
b1 6
b1 G
b1 J
b1 M
b1 I
bz +
bz @
bz W
b1 !
b1 3
b1 E
b1 O
b1 Q
b1 U
b1 h
b1 k
0V
1P
0N
1K
b10 F
1a
b1011010100000 :
b1011010100000 c
b1011010100000 d
b110001 e
b1100110011 (
b1100110011 <
b1100110011 A
b1100110011 R
b1100110011 Y
b1100110011 D
0?
1$
b11 %
b11 8
b11 C
b11 `
b11 f
b110011 #
b110011 7
b110011 B
b110011 ]
b110011 ^
b11111 *
b11111 >
b11111 [
b11111 \
1,
#470
0,
#475
b1 +
b1 @
b1 W
1V
0P
1N
0K
b0 F
0a
b1 !
b1 3
b1 E
b1 O
b1 Q
b1 U
b1 h
b1 k
b1000000001000 :
b1000000001000 c
b1000000001000 d
bx T
b110000 e
b1101001010 (
b1101001010 <
b1101001010 A
b1101001010 R
b1101001010 Y
b1101001010 D
1?
0$
b1 )
b1 =
b1 H
b1 L
b1001010 #
b1001010 7
b1001010 B
b1001010 ]
b1001010 ^
b100000 *
b100000 >
b100000 [
b100000 \
1,
#476
b110111111 2
#480
0,
#485
05
b1010 6
b1010 G
b1010 J
b1010 M
bz +
bz @
bz W
b1010 I
b1010 !
b1010 3
b1010 E
b1010 O
b1010 Q
b1010 U
b1010 h
b1010 k
0V
0N
1K
b10 F
1g
1a
0Z
b11010000010 :
b11010000010 c
b11010000010 d
b100001 e
b101011110010 (
b101011110010 <
b101011110010 A
b101011110010 R
b101011110010 Y
b101011110010 D
0?
1$
b1010 %
b1010 8
b1010 C
b1010 `
b1010 f
b100 &
b100 9
b100 _
b100 b
b11110010 #
b11110010 7
b11110010 B
b11110010 ]
b11110010 ^
b100001 *
b100001 >
b100001 [
b100001 \
1,
#490
0,
#495
b1010 +
b1010 @
b1010 W
b1010 !
b1010 3
b1010 E
b1010 O
b1010 Q
b1010 U
b1010 h
b1010 k
1V
1N
0K
b0 F
0g
0a
1Z
b1000000001000 :
b1000000001000 c
b1000000001000 d
b100000 e
1?
0$
b1010 )
b1010 =
b1010 H
b1010 L
1,
#500
0,
#505
b1010 T
b101 6
b101 G
b101 J
b101 M
bz +
bz @
bz W
b1010 !
b1010 3
b1010 E
b1010 O
b1010 Q
b1010 U
b1010 h
b1010 k
b101 I
0V
1P
0N
1K
b100 F
1a
b1011100100000 :
b1011100100000 c
b1011100100000 d
b1111001 e
b1000100010 (
b1000100010 <
b1000100010 A
b1000100010 R
b1000100010 Y
b1000100010 D
0?
1$
b10 %
b10 8
b10 C
b10 `
b10 f
b1111 &
b1111 9
b1111 _
b1111 b
b100010 #
b100010 7
b100010 B
b100010 ]
b100010 ^
b100010 *
b100010 >
b100010 [
b100010 \
1,
#510
0,
#515
b101 +
b101 @
b101 W
1V
0P
1N
0K
b0 F
0a
b101 !
b101 3
b101 E
b101 O
b101 Q
b101 U
b101 h
b101 k
b1000000001000 :
b1000000001000 c
b1000000001000 d
bx T
b1111000 e
b1001001111 (
b1001001111 <
b1001001111 A
b1001001111 R
b1001001111 Y
b1001001111 D
b101 6
b101 G
b101 J
b101 M
1?
b101 I
0$
b101 )
b101 =
b101 H
b101 L
b1001111 #
b1001111 7
b1001111 B
b1001111 ]
b1001111 ^
b100011 *
b100011 >
b100011 [
b100011 \
1,
#516
b111100111 2
#520
0,
